com/cb/springdata/sample/entities/Building.class
com/cb/springdata/sample/entities/Area.class
com/cb/springdata/sample/service/BuildingService.class
com/cb/springdata/sample/repositories/BuildingRepository.class
com/cb/springdata/sample/SampleApplication.class
com/cb/springdata/sample/service/BuildingServiceImpl.class
